3 Daten aufbereiten – Einführung in R
…
3  Daten aufbereiten

Datensätze liegen häufig nicht in der Form vor, die für Analyse oder Visualisierung benötigt wird. Daher müssen wir sie meist zunächst aufbereiten. Dazu gehört, relevante Variablen auszuwählen, Beobachtungen zu filtern, Datentypen zu korrigieren, neue Kennzahlen zu berechnen oder Informationen sinnvoll zusammenzufassen. Um diese Schritte zu illustrieren, verwenden wir den Palmer Penguins-Datensatz, der über das Package palmerpenguins frei verfügbar ist:

penguins <- palmerpenguins::penguins |>
  dplyr::rename(
    bill_len = bill_length_mm,
    bill_dep = bill_depth_mm,
    flipper_len = flipper_length_mm,
    body_mass = body_mass_g
  )
penguins
#> # A tibble: 344 × 8
#>   species island    bill_len bill_dep flipper_len body_mass sex     year
#>   <fct>   <fct>        <dbl>    <dbl>       <int>     <int> <fct>  <int>
#> 1 Adelie  Torgersen     39.1     18.7         181      3750 male    2007
#> 2 Adelie  Torgersen     39.5     17.4         186      3800 female  2007
#> 3 Adelie  Torgersen     40.3     18           195      3250 female  2007
#> 4 Adelie  Torgersen     NA       NA            NA        NA <NA>    2007
#> 5 Adelie  Torgersen     36.7     19.3         193      3450 female  2007
#> 6 Adelie  Torgersen     39.3     20.6         190      3650 male    2007
#> # ℹ 338 more rows
…
Durch diese Struktur wird der Datensatz übersichtlich, leicht zu analysieren und kompatibel mit modernen R-Werkzeugen wie dplyr und ggplot2.

In unserem Übungsdatensatz penguins ist jede Zeile ein einzelner Pinguin und in den Spalten erhalten wir Informationen zu bestimmten Variablen (z.B. Spezies oder Geschlecht) für jede dieser Pinguin-Beobachtungen.

3.3 Daten auswählen und sortieren

Bevor wir mit Analysen beginnen, müssen wir häufig relevanten Daten auswählen und sortieren, um den Datensatz übersichtlich zu halten. Mit dplyr erledigen wir dies z.B. mit select() zum Auswählen von Variablen, filter() oder slice() zum Filtern von Zeilen, distinct() und drop_na() zum Bereinigen von Duplikaten und fehlenden Werten sowie arrange() zum Sortieren. So können wir gezielt nur die Informationen betrachten, die für die Analyse wichtig sind.

3.3.1 select()

select() ermöglicht es uns, nur die gewünschten Spalten eines Datensatzes zu behalten. Benötigen wir etwa nur Informationen zur Spezies, Insel und der Flügellänge können wir diese Variablen auswählen mit:

penguins |>
  select(species, island, flipper_len)
#> # A tibble: 344 × 3
#>   species island    flipper_len
#>   <fct>   <fct>           <int>
#> 1 Adelie  Torgersen         181
#> 2 Adelie  Torgersen         186
#> 3 Adelie  Torgersen         195
#> 4 Adelie  Torgersen          NA
#> 5 Adelie  Torgersen         193
#> 6 Adelie  Torgersen         190
#> # ℹ 338 more rows

Um eine Variable zu entfernen, setzen wir ein Ausrufezeichen (!) davor (alternativ kann auch ein Minus verwendet werden):

penguins |>
  select(!island)
#> # A tibble: 344 × 7
#>   species bill_len bill_dep flipper_len body_mass sex     year
#>   <fct>      <dbl>    <dbl>       <int>     <int> <fct>  <int>
#> 1 Adelie      39.1     18.7         181      3750 male    2007
#> 2 Adelie      39.5     17.4         186      3800 female  2007
#> 3 Adelie      40.3     18           195      3250 female  2007
#> 4 Adelie      NA       NA            NA        NA <NA>    2007
#> 5 Adelie      36.7     19.3         193      3450 female  2007
#> 6 Adelie      39.3     20.6         190      3650 male    2007
#> # ℹ 338 more rows

Um mehrere aufeinanderfolgende Variablen auszuwählen, können wir diese mit firstvar:lastvar zusammenfassen:

penguins |>
  select(bill_len:body_mass)
#> # A tibble: 344 × 4
#>   bill_len bill_dep flipper_len body_mass
#>      <dbl>    <dbl>       <int>     <int>
#> 1     39.1     18.7         181      3750
#> 2     39.5     17.4         186      3800
#> 3     40.3     18           195      3250
#> 4     NA       NA            NA        NA
#> 5     36.7     19.3         193      3450
#> 6     39.3     20.6         190      3650
#> # ℹ 338 more rows

Eine Reihe von zusätzlichen dplyr-Funktionen sind im Zusammenhang ebenfalls hilfreich: starts_with("text"), ends_with("text") und contains("text") innerhalb von select() wählen all jene Variablen aus, deren Namen mit "text" beginnen, enden bzw. "text" beinhalten. Mit where() werden alle Variablen ausgewählt, auf die eine bestimmte Kondition zutrifft. everything() wählt alle Variablen aus, last_col() die letzte Spalte:

penguins |>
  select(starts_with("bill"))
#> # A tibble: 344 × 2
#>   bill_len bill_dep
#>      <dbl>    <dbl>
#> 1     39.1     18.7
#> 2     39.5     17.4
#> 3     40.3     18  
#> 4     NA       NA  
#> 5     36.7     19.3
#> 6     39.3     20.6
#> # ℹ 338 more rows
penguins |>
  select(where(is.factor))
#> # A tibble: 344 × 3
#>   species island    sex   
#>   <fct>   <fct>     <fct> 
#> 1 Adelie  Torgersen male  
#> 2 Adelie  Torgersen female
#> 3 Adelie  Torgersen female
#> 4 Adelie  Torgersen <NA>  
#> 5 Adelie  Torgersen female
#> 6 Adelie  Torgersen male  
#> # ℹ 338 more rows
penguins |>
  select(last_col())
#> # A tibble: 344 × 1
#>    year
#>   <int>
#> 1  2007
#> 2  2007
#> 3  2007
#> 4  2007
#> 5  2007
#> 6  2007
#> # ℹ 338 more rows

HinweisHinweis

Damit der penguins Datensatz nicht immer wieder neu geladen werden muss, speichern wir Transformationen in diesem Kapitel nicht ab. In der eigenen Datenaufbereitung solltest du Änderungen einem Objekt zuweisen, damit diese erhalten bleiben:

penguins <- penguins |>
  select(!island)

3.3.2 filter()

Mit filter() können wir bestimmte Zeilen eines Datensatzes auswählen, die bestimmte Bedingungen erfüllen. So lassen sich gezielt Beobachtungen extrahieren, etwa alle Pinguine der Art Adelie oder alle Pinguine mit einer Schnabellänge von mindestens 40 Milimetern:

penguins |>
  filter(species == "Adelie")
#> # A tibble: 152 × 8
#>   species island    bill_len bill_dep flipper_len body_mass sex     year
#>   <fct>   <fct>        <dbl>    <dbl>       <int>     <int> <fct>  <int>
#> 1 Adelie  Torgersen     39.1     18.7         181      3750 male    2007
#> 2 Adelie  Torgersen     39.5     17.4         186      3800 female  2007
#> 3 Adelie  Torgersen     40.3     18           195      3250 female  2007
#> 4 Adelie  Torgersen     NA       NA            NA        NA <NA>    2007
#> 5 Adelie  Torgersen     36.7     19.3         193      3450 female  2007
#> 6 Adelie  Torgersen     39.3     20.6         190      3650 male    2007
#> # ℹ 146 more rows
penguins |>
  filter(bill_len >= 40)
#> # A tibble: 242 × 8
#>   species island    bill_len bill_dep flipper_len body_mass sex     year
#>   <fct>   <fct>        <dbl>    <dbl>       <int>     <int> <fct>  <int>
#> 1 Adelie  Torgersen     40.3     18           195      3250 female  2007
#> 2 Adelie  Torgersen     42       20.2         190      4250 <NA>    2007
#> 3 Adelie  Torgersen     41.1     17.6         182      3200 female  2007
#> 4 Adelie  Torgersen     42.5     20.7         197      4500 male    2007
#> 5 Adelie  Torgersen     46       21.5         194      4200 male    2007
#> 6 Adelie  Biscoe        40.6     18.6         183      3550 male    2007
#> # ℹ 236 more rows
…
&
logisches UND
sex == "female" & island == "Biscoe"

|
logisches ODER
bill_len >= 45 | bill_len <= 35

Wollen wir auf mehrere Konditionen gleichzeitig filtern, können wir diese in der Filter-Option angeben. Wir extrahieren weibliche Pinguine auf der Insel Biscoe mit:

penguins |>
  filter(sex == "female" & island == "Biscoe")
#> # A tibble: 80 × 8
#>   species island bill_len bill_dep flipper_len body_mass sex     year
#>   <fct>   <fct>     <dbl>    <dbl>       <int>     <int> <fct>  <int>
#> 1 Adelie  Biscoe     37.8     18.3         174      3400 female  2007
#> 2 Adelie  Biscoe     35.9     19.2         189      3800 female  2007
#> 3 Adelie  Biscoe     35.3     18.9         187      3800 female  2007
#> 4 Adelie  Biscoe     40.5     17.9         187      3200 female  2007
#> 5 Adelie  Biscoe     37.9     18.6         172      3150 female  2007
#> 6 Adelie  Biscoe     39.6     17.7         186      3500 female  2008
#> # ℹ 74 more rows

Das Subset an Pinguinen, die eine Schnabellänge von mindestens 45mm oder eine Schnabellänge von höchstens 35mm haben filtern wir mit dem Oder-Operator |:

penguins |>
  filter(bill_len >= 45 | bill_len <= 35)
#> # A tibble: 177 × 8
#>   species island    bill_len bill_dep flipper_len body_mass sex     year
#>   <fct>   <fct>        <dbl>    <dbl>       <int>     <int> <fct>  <int>
#> 1 Adelie  Torgersen     34.1     18.1         193      3475 <NA>    2007
#> 2 Adelie  Torgersen     34.6     21.1         198      4400 male    2007
#> 3 Adelie  Torgersen     34.4     18.4         184      3325 female  2007
#> 4 Adelie  Torgersen     46       21.5         194      4200 male    2007
#> 5 Adelie  Biscoe        35       17.9         190      3450 female  2008
#> 6 Adelie  Biscoe        34.5     18.1         187      2900 female  2008
#> # ℹ 171 more rows

Äquivalent zu den Base R Operatoren & und | sind die dplyr-Funktionen when_all() und when_any():

penguins |>
  filter(when_all(sex == "female", island == "Biscoe"))
#> # A tibble: 80 × 8
#>   species island bill_len bill_dep flipper_len body_mass sex     year
#>   <fct>   <fct>     <dbl>    <dbl>       <int>     <int> <fct>  <int>
#> 1 Adelie  Biscoe     37.8     18.3         174      3400 female  2007
#> 2 Adelie  Biscoe     35.9     19.2         189      3800 female  2007
#> 3 Adelie  Biscoe     35.3     18.9         187      3800 female  2007
#> 4 Adelie  Biscoe     40.5     17.9         187      3200 female  2007
#> 5 Adelie  Biscoe     37.9     18.6         172      3150 female  2007
#> 6 Adelie  Biscoe     39.6     17.7         186      3500 female  2008
#> # ℹ 74 more rows
penguins |>
  filter(when_any(bill_len >= 40, body_mass >= 4000))
#> # A tibble: 253 × 8
#>   species island    bill_len bill_dep flipper_len body_mass sex     year
#>   <fct>   <fct>        <dbl>    <dbl>       <int>     <int> <fct>  <int>
#> 1 Adelie  Torgersen     40.3     18           195      3250 female  2007
#> 2 Adelie  Torgersen     39.2     19.6         195      4675 male    2007
#> 3 Adelie  Torgersen     42       20.2         190      4250 <NA>    2007
#> 4 Adelie  Torgersen     41.1     17.6         182      3200 female  2007
#> 5 Adelie  Torgersen     34.6     21.1         198      4400 male    2007
#> 6 Adelie  Torgersen     42.5     20.7         197      4500 male    2007
#> # ℹ 247 more rows

WarnungUmgang mit NAs: filter_out()

Logische Bedingungen können bei fehlenden Werten ( (NA) Probleme verursachen. Wollen wir etwa alle weiblichen Pinguine aus dem Datensatz entfernen führt penguins |> filter(sex != "female") dazu, dass sowohl weibliche Pinguine als auch jene mit fehlender Geschlechtsinformation ausgeschlossen werden.

Mit filter_out() schließen wir nur Beobachtungen aus, auf welche die Kondition zutrifft:

penguins |>
  filter_out(sex == "female")
#> # A tibble: 179 × 8
#>   species island    bill_len bill_dep flipper_len body_mass sex    year
#>   <fct>   <fct>        <dbl>    <dbl>       <int>     <int> <fct> <int>
#> 1 Adelie  Torgersen     39.1     18.7         181      3750 male   2007
#> 2 Adelie  Torgersen     NA       NA            NA        NA <NA>   2007
#> 3 Adelie  Torgersen     39.3     20.6         190      3650 male   2007
#> 4 Adelie  Torgersen     39.2     19.6         195      4675 male   2007
#> 5 Adelie  Torgersen     34.1     18.1         193      3475 <NA>   2007
#> 6 Adelie  Torgersen     42       20.2         190      4250 <NA>   2007
#> # ℹ 173 more rows
…
3.3.5 drop_na()

Oft enthalten Datensätze fehlende Werte (NA), die bestimmte Analysen oder Berechnungen stören können. Mit drop_na() können wir gezielt alle Zeilen entfernen, die in ausgewählten Variablen fehlende Werte enthalten, und so einen sauberen Datensatz erhalten. Zum Beispiel lässt sich im penguins-Datensatz nur jene Beobachtungen behalten, bei denen die Schnabeltiefe nicht fehlt:

penguins |>
  drop_na(bill_dep)
#> # A tibble: 342 × 8
#>   species island    bill_len bill_dep flipper_len body_mass sex     year
#>   <fct>   <fct>        <dbl>    <dbl>       <int>     <int> <fct>  <int>
#> 1 Adelie  Torgersen     39.1     18.7         181      3750 male    2007
#> 2 Adelie  Torgersen     39.5     17.4         186      3800 female  2007
#> 3 Adelie  Torgersen     40.3     18           195      3250 female  2007
#> 4 Adelie  Torgersen     36.7     19.3         193      3450 female  2007
#> 5 Adelie  Torgersen     39.3     20.6         190      3650 male    2007
#> 6 Adelie  Torgersen     38.9     17.8         181      3625 female  2007
#> # ℹ 336 more rows

Spezifizieren wir keine Variable innerhalb von drop_na(), so werden sämtliche Beobachtungen mit zumindest einem fehlenden Wert in einer der Variablen ausgeschlossen (penguins |> drop_na()).

WarnungGefahren beim Entfernen fehlender Werte

Man sollte mit drop_na() vorsichtig sein, weil beim Entfernen von Zeilen mit fehlenden Werten unter Umständen wichtige Daten verloren gehen. Gerade wenn viele Variablen NA-Werte enthalten, kann das zu einer stark verkleinerten Stichprobe führen und die Analyse verzerren. Deshalb sollte man vorher prüfen, wie viele Werte betroffen sind und überlegen, ob alternative Strategien wie Imputation oder gezieltes Entfernen nur einzelner Spalten sinnvoller sind.

3.3.6 arrange()

Mit arrange() können wir die Zeilen eines Datensatzes nach einer oder mehreren Variablen sortieren. So lassen sich Daten übersichtlicher darstellen, Extremwerte leicht erkennen oder vorbereitend für weitere Analysen ordnen, ohne den Datensatz inhaltlich zu verändern.

penguins |>
  arrange(bill_len, bill_dep)
#> # A tibble: 344 × 8
#>   species island    bill_len bill_dep flipper_len body_mass sex     year
#>   <fct>   <fct>        <dbl>    <dbl>       <int>     <int> <fct>  <int>
#> 1 Adelie  Dream         32.1     15.5         188      3050 female  2009
#> 2 Adelie  Dream         33.1     16.1         178      2900 female  2008
#> 3 Adelie  Torgersen     33.5     19           190      3600 female  2008
#> 4 Adelie  Dream         34       17.1         185      3400 female  2008
#> 5 Adelie  Torgersen     34.1     18.1         193      3475 <NA>    2007
#> 6 Adelie  Torgersen     34.4     18.4         184      3325 female  2007
#> # ℹ 338 more rows

Wenn mehr als eine Variable angeführt ist, ordnet arrange() zuerst nach der erstgenannten und nur bei Gleichstand nach den weiteren Variablen. Fehlende Werte werden immer als letztes angeordnet. Per Default ordnet arrange() von unten nach oben. Wollen wir vom Maximum aus sortieren, verwenden wir desc() innerhalb von arrange():

penguins |>
  arrange(desc(bill_len))
#> # A tibble: 344 × 8
#>   species   island bill_len bill_dep flipper_len body_mass sex     year
#>   <fct>     <fct>     <dbl>    <dbl>       <int>     <int> <fct>  <int>
#> 1 Gentoo    Biscoe     59.6     17           230      6050 male    2007
#> 2 Chinstrap Dream      58       17.8         181      3700 female  2007
#> 3 Gentoo    Biscoe     55.9     17           228      5600 male    2009
#> 4 Chinstrap Dream      55.8     19.8         207      4000 male    2009
#> 5 Gentoo    Biscoe     55.1     16           230      5850 male    2009
#> 6 Gentoo    Biscoe     54.3     15.7         231      5650 male    2008
#> # ℹ 338 more rows

3.4 Variablen verändern und erstellen

Neben dem Auswählen und Sortieren ist es für viele Analysen notwendig, Variablen zu verändern oder neue zu erstellen. Mit dplyr nutzen wir dafür insbesondere mutate() zur Berechnung oder Transformation von Variablen. Außerdem lernen wir in diesem Abschnitt, wie wir diese Umwandlungen auf Basis bedingter Fallunterscheidungen treffen (if_else(), case_when(), replace_when()) und wie wir einzelne Ausprägungen von Variabeln gezielt umcodieren (recode_values(), replace_values()). Auf diese Weise lassen sich Variablen anpassen, neu strukturieren und in eine Form bringen, die für statistische Auswertungen geeignet ist.

3.4.1 mutate()

Mit mutate() erstellen wir neue Spalten (Variablen), häufig auf Basis bereits existierender Spalten. Wir können damit etwa jeder Beobachtung in penguins eine Beobachtungs-ID hinzufügen:

penguins |>
  mutate(
    id = row_number()
  )
#> # A tibble: 344 × 9
#>   species island    bill_len bill_dep flipper_len body_mass sex     year
#>   <fct>   <fct>        <dbl>    <dbl>       <int>     <int> <fct>  <int>
#> 1 Adelie  Torgersen     39.1     18.7         181      3750 male    2007
#> 2 Adelie  Torgersen     39.5     17.4         186      3800 female  2007
#> 3 Adelie  Torgersen     40.3     18           195      3250 female  2007
#> 4 Adelie  Torgersen     NA       NA            NA        NA <NA>    2007
#> 5 Adelie  Torgersen     36.7     19.3         193      3450 female  2007
#> 6 Adelie  Torgersen     39.3     20.6         190      3650 male    2007
#> # ℹ 338 more rows
#> # ℹ 1 more variable: id <int>

Per Default wir diese Variable an das Ende des Datensatzes hinzugefügt. Wir können die Position der Variable jedoch mit dem Argument .before = ... bzw. .after = ... spezifizieren, wobei hier sowohl numerische Werte für die Spaltenzahl sowie Variablennamen akzeptiert werden.

Besonders hilfreich ist mutate() um neue Variablen auf Basis der Werte in bereits bestehenden zu definieren. Wollen wir etwa uns das Verhältnis von Schnabellänge und Schnabeltiefe (auf zwei Dezimalstellen gerundet) angeben, und diese neue Variable im Datensatz nach bill_dep angeordnet haben:

penguins |>
  mutate(
    bill_ratio = round(bill_len/bill_dep, digits = 2),
    .after = bill_dep
  )
#> # A tibble: 344 × 9
#>   species island    bill_len bill_dep bill_ratio flipper_len body_mass sex   
#>   <fct>   <fct>        <dbl>    <dbl>      <dbl>       <int>     <int> <fct> 
#> 1 Adelie  Torgersen     39.1     18.7       2.09         181      3750 male  
#> 2 Adelie  Torgersen     39.5     17.4       2.27         186      3800 female
#> 3 Adelie  Torgersen     40.3     18         2.24         195      3250 female
#> 4 Adelie  Torgersen     NA       NA        NA             NA        NA <NA>  
#> 5 Adelie  Torgersen     36.7     19.3       1.9          193      3450 female
#> 6 Adelie  Torgersen     39.3     20.6       1.91         190      3650 male  
#> # ℹ 338 more rows
#> # ℹ 1 more variable: year <int>

Innerhalb von mutate() können wir auch mehrere Variablen gleichzeitig definieren, indem wir die jeweiligen Operationen mit einem Komma trennen. Wenn wir keine neue Variable kreieren, sondern eine bestehende adaptieren wollen, verwenden wir einfach den jeweiligen Variablennamen auf der linken Seite. Wollen wir etwa eine Beobachtungs-ID hinzufügen, das Schnabel-Ratio erstellen und das Gewicht in Kilogramm anstelle von Gramm angegeben haben:

penguins |>
  mutate(
    id = row_number(),
    bill_ratio = round(bill_len/bill_dep, digits = 2),
    body_mass = body_mass/1000,
  ) |>
  select(id, bill_len, bill_dep, bill_ratio, body_mass)
#> # A tibble: 344 × 5
#>      id bill_len bill_dep bill_ratio body_mass
#>   <int>    <dbl>    <dbl>      <dbl>     <dbl>
#> 1     1     39.1     18.7       2.09      3.75
#> 2     2     39.5     17.4       2.27      3.8 
#> 3     3     40.3     18         2.24      3.25
#> 4     4     NA       NA        NA        NA   
#> 5     5     36.7     19.3       1.9       3.45
#> 6     6     39.3     20.6       1.91      3.65
#> # ℹ 338 more rows
…
