11 Funktionen, Loops, Apply – Einführung in R
…
set.seed(123) # damit Sample-Ziehen replizierbar ist

for (wurf in 1:wurf_max) {
  out$kopf[wurf] <- sample(0:1, size = 1)
  out$anteil[wurf] <- sum(out$kopf[1:wurf]) / wurf
}

out
#> # A tibble: 5,000 × 3
#>   wurf_n  kopf anteil
#>    <int> <int>  <dbl>
#> 1      1     0  0    
#> 2      2     0  0    
#> 3      3     0  0    
#> 4      4     1  0.25 
#> 5      5     0  0.2  
#> 6      6     1  0.333
#> # ℹ 4,994 more rows
…
