6 Grafiken in R – Einführung in R
…
6  Grafiken in R

Die Datenvisualisierung ist ein zentraler Bestandteil der Datenanalyse, da sie es ermöglicht, Muster, Zusammenhänge und Ausreißer in Daten schnell und intuitiv zu erkennen. Eine gute Visualisierung hilft somit dabei, einen ersten Eindruck über die Daten zu bekommen. Außerdem können wir mit Grafiken die Ergebnisse fortgeschrittener Analysen (etwa Effekte in unterschiedlichen Regressionsmodellen) zusammenfassen und besser kommunizieren.

In diesem Kapitel werden wir ausschließlich mit der Visualisierung von Datensätzen auseinandersetzen. Wie in Kapitel 3 nutzen wir dafür den Palmer Penguins-Datensatz, der über das Package palmerpenguins frei verfügbar ist:

penguins <- palmerpenguins::penguins |>
  dplyr::rename(
    bill_len = bill_length_mm,
    bill_dep = bill_depth_mm,
    flipper_len = flipper_length_mm,
    body_mass = body_mass_g
  )
penguins
#> # A tibble: 344 × 8
#>   species island    bill_len bill_dep flipper_len body_mass sex     year
#>   <fct>   <fct>        <dbl>    <dbl>       <int>     <int> <fct>  <int>
#> 1 Adelie  Torgersen     39.1     18.7         181      3750 male    2007
#> 2 Adelie  Torgersen     39.5     17.4         186      3800 female  2007
#> 3 Adelie  Torgersen     40.3     18           195      3250 female  2007
#> 4 Adelie  Torgersen     NA       NA            NA        NA <NA>    2007
#> 5 Adelie  Torgersen     36.7     19.3         193      3450 female  2007
#> 6 Adelie  Torgersen     39.3     20.6         190      3650 male    2007
#> # ℹ 338 more rows
…
