4 Daten importieren – Einführung in R
…
4.2 Daten einlesen

4.2.1 CSV-Dateien

Das CSV-Format (Comma-Separated Values) speichert tabellarische Daten als Text, wobei jede Zeile eine Beobachtung und jede Spalte einen Wert enthält, getrennt durch Kommata oder andere Trennzeichen. Beim Import in R müssen wir auf das korrekte Trennzeichen achten, damit die Zahlen korrekt eingelesen werden.

CSV-Dateien können mit der Funktion read_csv() aus dem tidyverse/readr Package eingelesen werden:

earnings <- read_csv("data/raw/earnings_data/earnings.csv")
earnings
#> # A tibble: 10 × 4
#>   Names        age.in.years Nationalität  `inc in Eur`
#>   <chr>               <dbl> <chr>         <chr>       
#> 1 Anna Maria             33 DE            1689        
#> 2 Ben                    NA N/A           875         
#> 3 Clara                  21 International 2000€       
#> 4 Dimitri                28 EU            2299        
#> 5 Emilia-Luise           29 DE            2522        
#> 6 Fatima                 23 DE            1060        
#> # ℹ 4 more rows

International werden die einzelnen Spalten mit einem Komma (,) getrennt. Dies ist auch das Default-Trennzeichen bei read_csv(). Da in der deutschen Sprache dieses als Zeichen für Dezimalstellen verwendet wird, wird hier das Semikolon/der Strichpunkt (;) als Trennzeichen verwendet. Verwenden wir das falsche Trennzeichen beim Einlesen von CSV-Dateien mit diesem Trennzeichen, werden die Daten falsch eingelesen:

read_csv("data/raw/earnings_data/earnings_de.csv")
#> # A tibble: 10 × 1
#>   `Names;age.in.years;Nationalität;inc in Eur`
#>   <chr>                                       
#> 1 Anna Maria;33;DE;1689                       
#> 2 Ben;NA;N/A;875                              
#> 3 Clara;21;International;2000€                
#> 4 Dimitri;28;EU;2299                          
#> 5 Emilia-Luise;29;DE;2522                     
#> 6 Fatima;23;DE;1060                           
#> # ℹ 4 more rows

Stattdessen müssen wir bei einer solchen Encodierung read_csv2() verwenden:

read_csv2("data/raw/earnings_data/earnings_de.csv")
#> # A tibble: 10 × 4
#>   Names        age.in.years Nationalität  `inc in Eur`
#>   <chr>               <dbl> <chr>         <chr>       
#> 1 Anna Maria             33 DE            1689        
#> 2 Ben                    NA N/A           875         
#> 3 Clara                  21 International 2000€       
#> 4 Dimitri                28 EU            2299        
#> 5 Emilia-Luise           29 DE            2522        
#> 6 Fatima                 23 DE            1060        
#> # ℹ 4 more rows
…
Mit load() werden alle in dieser Datei abgespeicherten R-Objekte importiert:

load("data/raw/earnings_data/multidata.RData")

4.2.3 Excel-Spreadsheets

Um Excel-Spreadsheets einzulesen benötigt man in R ein zusätzliches Package (readxl). Mit der Funktion read_excel() können sowohl .xlsx als auch .xls Dateien eingeladen werden.

library(readxl)
read_excel("data/raw/earnings_data/earnings.xlsx")
#> # A tibble: 10 × 4
#>   Names        age.in.years Nationalität  `inc in Eur`
#>   <chr>               <dbl> <chr>         <chr>       
#> 1 Anna Maria             33 DE            1689        
#> 2 Ben                    NA N/A           875         
#> 3 Clara                  21 International 2000€       
#> 4 Dimitri                28 EU            2299        
#> 5 Emilia-Luise           29 DE            2522        
#> 6 Fatima                 23 DE            1060        
#> # ℹ 4 more rows
…
Um einen Überblick über die Tabellenblätter eines Spreadsheets zu bekommen, ist die Funktion excel_sheets() im readxl Package hilfreich:

excel_sheets("data/raw/earnings_data/earnings.xlsx")
#> [1] "Sheet1"

4.2.4 Stata-Datensätze

Stata ist eine alternative Statistiksoftware, die in den Wirtschaftswissenschaften immer noch häufig verwendet wird. Für das Speichern von Datensätzen verwendet Stata das .dta-Format. Dieses speichert sowohl die Daten als auch Variablen- und Wertelabels, sodass beim Einlesen in R oder Stata die Struktur, Kategorien und Labels erhalten bleiben.

Für das Einlesen von Stata-Datensätzen verwenden wir das haven Package und die Funktion ``:

library(haven)
read_dta("data/raw/earnings_data/earnings.dta")
#> # A tibble: 10 × 4
#>   names          age nationality        income
#>   <chr>        <dbl> <dbl+lbl>           <dbl>
#> 1 Anna Maria      33  1 [DE]              1689
#> 2 Ben             NA NA                    875
#> 3 Clara           21  3 [International]   2000
#> 4 Dimitri         28  2 [EU]              2299
#> 5 Emilia-Luise    29  1 [DE]              2522
#> 6 Fatima          23  1 [DE]              1060
#> # ℹ 4 more rows

In Stata werden Faktorvariablen wie in diesem Fall nationality numerisch abgespeichert und mit Labels versehen. Um diese in R miteinzulesen, können wir haven::as_factor() verwenden:

read_dta("data/raw/earnings_data/earnings.dta") |>
  mutate(nationality = as_factor(nationality))
#> # A tibble: 10 × 4
#>   names          age nationality   income
#>   <chr>        <dbl> <fct>          <dbl>
#> 1 Anna Maria      33 DE              1689
#> 2 Ben             NA <NA>             875
#> 3 Clara           21 International   2000
#> 4 Dimitri         28 EU              2299
#> 5 Emilia-Luise    29 DE              2522
#> 6 Fatima          23 DE              1060
#> # ℹ 4 more rows

TippAutomatisiertes Faktor-Einlesen bei dta

Damit wir nicht bei jeder Variable im Datensatz überprüfen müssen, ob es sich um eine Label-Variable handelt, können wir auch folgenden Code verwenden, der über alle Variable (across(.)) die Funktion as_factor() anwendet, falls es sich dabei um eine Label-Variable handelt (where(is.labelled)):

read_dta("data/raw/earnings_data/earnings.dta") |>
  mutate(across(where(is.labelled), as_factor))

4.2.5 Weitere Dateiformate

Die Funktion read_delim() kann in R verwendet werden, um Datensätze mit beliebigem Trennzeichen einzulesen. Sie versucht dabei, das Trennzeichen automatisch zu erkennen. Wir können damit etwa eine Textdatei (.txt) einlesen:

read_delim("data/raw/earnings_data/earnings_tab.txt")
#> # A tibble: 10 × 4
#>   Names        age.in.years Nationalität  `inc in Eur`
#>   <chr>               <dbl> <chr>         <chr>       
#> 1 Anna Maria             33 DE            1689        
#> 2 Ben                    NA N/A           875         
#> 3 Clara                  21 International 2000€       
#> 4 Dimitri                28 EU            2299        
#> 5 Emilia-Luise           29 DE            2522        
#> 6 Fatima                 23 DE            1060        
#> # ℹ 4 more rows

Bei diesem Text-File wird der Tabulator als Trennzeichen verwendet und von R auch korrekt beim Einlesen erkannt. Wir können das Trennzeichen aber auch explizit über das delim = value-Argument spezifizieren:

read_delim("data/raw/earnings_data/earnings_tab.txt", delim = "\t")

WarnungProbleme mit Trennzeichen

Bei TXT-Dateien oder anderen allgemeinen Datensätzen kann es jedoch immer wieder zu Problemen kommen, wenn das Trennzeichen auch innerhalb einer Variable verwendet wird. Wurde zum Beispiel ein Datensatz als TXT-Datei mit Leerzeichen als Trennzeichen abgespeichert, so führt dies beim Einlesen zu folgendem Problem:

read_delim("data/raw/earnings_data/earnings_space.txt", delim = " ")
#> # A tibble: 10 × 6
#>   Names        age.in.years Nationalität  inc       `in`     Eur  
#>   <chr>        <chr>        <chr>         <chr>     <chr>    <lgl>
#> 1 Anna         Maria        33            "DE"      "1689\r" NA   
#> 2 Ben          <NA>         N/A           "875\r"    <NA>    NA   
#> 3 Clara        21           International "2000€\r"  <NA>    NA   
#> 4 Dimitri      28           EU            "2299\r"   <NA>    NA   
#> 5 Emilia-Luise 29           DE            "2522\r"   <NA>    NA   
#> 6 Fatima       23           DE            "1060\r"   <NA>    NA   
#> # ℹ 4 more rows
…
